%YAML 1.1
%TAG !u! tag:unity3d.com,2011:
--- !u!114 &11400000
MonoBehaviour:
  m_ObjectHideFlags: 0
  m_CorrespondingSourceObject: {fileID: 0}
  m_PrefabInstance: {fileID: 0}
  m_PrefabAsset: {fileID: 0}
  m_GameObject: {fileID: 0}
  m_Enabled: 1
  m_EditorHideFlags: 0
  m_Script: {fileID: 11500000, guid: 1c9a48afcede10041a468018d319eb28, type: 3}
  m_Name: Nager
  m_EditorClassIdentifier: 
  start:
  - Si vous pensez Savoir Nager
  - "Vous allez tomber a pic.... travers\xE9 plutot le pont !"
